5128,5668,5145
512,0,123
1450,0,170
1963,490,294
7255,0,3628
1319,1562,282
887,359,0
0,191,0
1148,1148,1148
3413,2872,5452
346,664,147
1786,780,1870
428,42,42
1100,1100,1100
514,1772,476
3168,3168,3168
2398,0,853
